<define-tag pagetitle>DSA-4912-1 exim4</define-tag>
<define-tag report_date>2021-5-04</define-tag>
<define-tag secrefs>CVE-2020-28007 CVE-2020-28008 CVE-2020-28009 CVE-2020-28010 CVE-2020-28011 CVE-2020-28012 CVE-2020-28013 CVE-2020-28014 CVE-2020-28015 CVE-2020-28017 CVE-2020-28019 CVE-2020-28021 CVE-2020-28022 CVE-2020-28023 CVE-2020-28024 CVE-2020-28025 CVE-2020-28026</define-tag>
<define-tag packages>exim4</define-tag>
<define-tag isvulnerable>yes</define-tag>
<define-tag fixed>yes</define-tag>
<define-tag fixed-section>no</define-tag>

#use wml::debian::security



</dl>
