<define-tag pagetitle>DSA-4770-1 thunderbird</define-tag>
<define-tag report_date>2020-10-06</define-tag>
<define-tag secrefs>CVE-2020-15673 CVE-2020-15676 CVE-2020-15677 CVE-2020-15678</define-tag>
<define-tag packages>thunderbird</define-tag>
<define-tag isvulnerable>yes</define-tag>
<define-tag fixed>yes</define-tag>
<define-tag fixed-section>no</define-tag>

#use wml::debian::security



</dl>
