<define-tag pagetitle>DLA-2665-1 ring</define-tag>
<define-tag report_date>2021-5-23</define-tag>
<define-tag secrefs>CVE-2021-21375</define-tag>
<define-tag packages>ring</define-tag>
<define-tag isvulnerable>yes</define-tag>
<define-tag fixed>yes</define-tag>
<define-tag fixed-section>no</define-tag>

#use wml::debian::security

