<define-tag pagetitle>DLA-2546-1 intel-microcode</define-tag>
<define-tag report_date>2021-02-06</define-tag>
<define-tag secrefs>CVE-2020-8695 CVE-2020-8696 CVE-2020-8698</define-tag>
<define-tag packages>intel-microcode</define-tag>
<define-tag isvulnerable>yes</define-tag>
<define-tag fixed>yes</define-tag>
<define-tag fixed-section>no</define-tag>

#use wml::debian::security

