<define-tag pagetitle>DLA-2530-1 drupal7</define-tag>
<define-tag report_date>2021-01-21</define-tag>
<define-tag secrefs>CVE-2020-36193</define-tag>
<define-tag packages>drupal7</define-tag>
<define-tag isvulnerable>yes</define-tag>
<define-tag fixed>yes</define-tag>
<define-tag fixed-section>no</define-tag>

#use wml::debian::security

