<define-tag pagetitle>DLA-777-1 libvncserver</define-tag>
<define-tag report_date>2017-1-3</define-tag>
<define-tag secrefs>CVE-2016-9941 CVE-2016-9942 Bug##850007 Bug##850008</define-tag>
<define-tag packages>libvncserver</define-tag>
<define-tag isvulnerable>yes</define-tag>
<define-tag fixed>yes</define-tag>
<define-tag fixed-section>no</define-tag>

#use wml::debian::security

