<define-tag pagetitle>DLA-1184-1 optipng</define-tag>
<define-tag report_date>2017-11-21</define-tag>
<define-tag secrefs>CVE-2017-1000229 Bug#882032</define-tag>
<define-tag packages>optipng</define-tag>
<define-tag isvulnerable>yes</define-tag>
<define-tag fixed>yes</define-tag>
<define-tag fixed-section>no</define-tag>

#use wml::debian::security

