<define-tag pagetitle>DLA-1002-1 smb4k</define-tag>
<define-tag report_date>2017-6-25</define-tag>
<define-tag secrefs>CVE-2017-8849 Bug#862505</define-tag>
<define-tag packages>smb4k</define-tag>
<define-tag isvulnerable>yes</define-tag>
<define-tag fixed>yes</define-tag>
<define-tag fixed-section>no</define-tag>

#use wml::debian::security

