<define-tag pagetitle>DLA-2376-1 qtbase-opensource-src</define-tag>
<define-tag report_date>2020-09-28</define-tag>
<define-tag secrefs>CVE-2018-19872 CVE-2020-17507</define-tag>
<define-tag packages>qtbase-opensource-src</define-tag>
<define-tag isvulnerable>yes</define-tag>
<define-tag fixed>yes</define-tag>
<define-tag fixed-section>no</define-tag>

#use wml::debian::security

