<define-tag pagetitle>DLA-2296-1 luajit</define-tag>
<define-tag report_date>2020-7-28</define-tag>
<define-tag secrefs>CVE-2020-15890</define-tag>
<define-tag packages>luajit</define-tag>
<define-tag isvulnerable>yes</define-tag>
<define-tag fixed>yes</define-tag>
<define-tag fixed-section>no</define-tag>

#use wml::debian::security

