<define-tag pagetitle>DLA-2485-1 golang-golang-x-net-dev</define-tag>
<define-tag report_date>2020-12-09</define-tag>
<define-tag secrefs>CVE-2019-9512 CVE-2019-9514</define-tag>
<define-tag packages>golang-golang-x-net-dev</define-tag>
<define-tag isvulnerable>yes</define-tag>
<define-tag fixed>yes</define-tag>
<define-tag fixed-section>no</define-tag>

#use wml::debian::security

