<define-tag pagetitle>DLA-2179-1 jackson-databind</define-tag>
<define-tag report_date>2020-04-18</define-tag>
<define-tag secrefs>CVE-2020-10968 CVE-2020-10969 CVE-2020-11111 CVE-2020-11112 CVE-2020-11113 CVE-2020-11619 CVE-2020-11620</define-tag>
<define-tag packages>jackson-databind</define-tag>
<define-tag isvulnerable>yes</define-tag>
<define-tag fixed>yes</define-tag>
<define-tag fixed-section>no</define-tag>

#use wml::debian::security

