<define-tag pagetitle>DLA-2230-1 php-horde</define-tag>
<define-tag report_date>2020-06-29</define-tag>
<define-tag secrefs>CVE-2020-8035</define-tag>
<define-tag packages>php-horde</define-tag>
<define-tag isvulnerable>yes</define-tag>
<define-tag fixed>yes</define-tag>
<define-tag fixed-section>no</define-tag>

#use wml::debian::security

