<define-tag pagetitle>DLA-2162-1 php-horde-form</define-tag>
<define-tag report_date>2020-03-29</define-tag>
<define-tag secrefs>CVE-2020-8866 Bug#955020</define-tag>
<define-tag packages>php-horde-form</define-tag>
<define-tag isvulnerable>yes</define-tag>
<define-tag fixed>yes</define-tag>
<define-tag fixed-section>no</define-tag>

#use wml::debian::security

