<define-tag pagetitle>DLA-1599-1 qemu</define-tag>
<define-tag report_date>2018-11-30</define-tag>
<define-tag secrefs>CVE-2016-2391 CVE-2016-2392 CVE-2016-2538 CVE-2016-2841 CVE-2016-2857 CVE-2016-2858 CVE-2016-4001 CVE-2016-4002 CVE-2016-4020 CVE-2016-4037 CVE-2016-4439 CVE-2016-4441 CVE-2016-4453 CVE-2016-4454 CVE-2016-4952 CVE-2016-5105 CVE-2016-5106 CVE-2016-5107 CVE-2016-5238 CVE-2016-5337 CVE-2016-5338 CVE-2016-6351 CVE-2016-6834 CVE-2016-6836 CVE-2016-6888 CVE-2016-7116 CVE-2016-7155 CVE-2016-7156 CVE-2016-7161 CVE-2016-7170 CVE-2016-7421 CVE-2016-7908 CVE-2016-7909 CVE-2016-8577 CVE-2016-8578 CVE-2016-8909 CVE-2016-8910 CVE-2016-9101 CVE-2016-9102 CVE-2016-9103 CVE-2016-9104 CVE-2016-9105 CVE-2016-9106 CVE-2017-10664 CVE-2018-10839 CVE-2018-17962 CVE-2018-17963 Bug#815008 Bug#815009 Bug#815680 Bug#817181 Bug#817182 Bug#817183 Bug#821038 Bug#821061</define-tag>
<define-tag packages>qemu</define-tag>
<define-tag isvulnerable>yes</define-tag>
<define-tag fixed>yes</define-tag>
<define-tag fixed-section>no</define-tag>

#use wml::debian::security

