<define-tag pagetitle>DLA-1394-1 imagemagick</define-tag>
<define-tag report_date>2018-6-26</define-tag>
<define-tag secrefs>CVE-2018-11251 CVE-2018-12599 CVE-2018-12600</define-tag>
<define-tag packages>imagemagick</define-tag>
<define-tag isvulnerable>yes</define-tag>
<define-tag fixed>yes</define-tag>
<define-tag fixed-section>no</define-tag>

#use wml::debian::security

