<define-tag pagetitle>DLA-1619-1 graphicsmagick</define-tag>
<define-tag report_date>2018-12-27</define-tag>
<define-tag secrefs>CVE-2018-20184 CVE-2018-20185 CVE-2018-20189 Bug#916752 Bug#916719 Bug#916721</define-tag>
<define-tag packages>graphicsmagick</define-tag>
<define-tag isvulnerable>yes</define-tag>
<define-tag fixed>yes</define-tag>
<define-tag fixed-section>no</define-tag>

#use wml::debian::security

