<define-tag pagetitle>DLA-1408-1 simplesamlphp</define-tag>
<define-tag report_date>2018-6-29</define-tag>
<define-tag secrefs>CVE-2017-12868 CVE-2017-12872</define-tag>
<define-tag packages>simplesamlphp</define-tag>
<define-tag isvulnerable>yes</define-tag>
<define-tag fixed>yes</define-tag>
<define-tag fixed-section>no</define-tag>

#use wml::debian::security

