<define-tag pagetitle>DSA-4511-1 nghttp2</define-tag>
<define-tag report_date>2019-9-01</define-tag>
<define-tag secrefs>CVE-2019-9511 CVE-2019-9513</define-tag>
<define-tag packages>nghttp2</define-tag>
<define-tag isvulnerable>yes</define-tag>
<define-tag fixed>yes</define-tag>
<define-tag fixed-section>no</define-tag>

#use wml::debian::security



</dl>
