<define-tag pagetitle>DSA-4543-1 sudo</define-tag>
<define-tag report_date>2019-10-14</define-tag>
<define-tag secrefs>CVE-2019-14287 Bug#942322</define-tag>
<define-tag packages>sudo</define-tag>
<define-tag isvulnerable>yes</define-tag>
<define-tag fixed>yes</define-tag>
<define-tag fixed-section>no</define-tag>

#use wml::debian::security



</dl>
