<define-tag pagetitle>DSA-4484-1 linux</define-tag>
<define-tag report_date>2019-7-20</define-tag>
<define-tag secrefs>CVE-2019-13272</define-tag>
<define-tag packages>linux</define-tag>
<define-tag isvulnerable>yes</define-tag>
<define-tag fixed>yes</define-tag>
<define-tag fixed-section>no</define-tag>

#use wml::debian::security



</dl>
