<define-tag pagetitle>DSA-5057-1 openjdk-11</define-tag>
<define-tag report_date>2022-1-24</define-tag>
<define-tag secrefs>CVE-2022-21248 CVE-2022-21277 CVE-2022-21282 CVE-2022-21283 CVE-2022-21291 CVE-2022-21293 CVE-2022-21294 CVE-2022-21296 CVE-2022-21299 CVE-2022-21305 CVE-2022-21340 CVE-2022-21341 CVE-2022-21360 CVE-2022-21365 CVE-2022-21366</define-tag>
<define-tag packages>openjdk-11</define-tag>
<define-tag isvulnerable>yes</define-tag>
<define-tag fixed>yes</define-tag>
<define-tag fixed-section>no</define-tag>

#use wml::debian::security



</dl>
