<define-tag pagetitle>DSA-5067-1 ruby2.7</define-tag>
<define-tag report_date>2022-2-03</define-tag>
<define-tag secrefs>CVE-2021-41816 CVE-2021-41817 CVE-2021-41819</define-tag>
<define-tag packages>ruby2.7</define-tag>
<define-tag isvulnerable>yes</define-tag>
<define-tag fixed>yes</define-tag>
<define-tag fixed-section>no</define-tag>

#use wml::debian::security



</dl>
