<define-tag pagetitle>DSA-5036-1 sphinxsearch</define-tag>
<define-tag report_date>2022-1-06</define-tag>
<define-tag secrefs>CVE-2020-29050</define-tag>
<define-tag packages>sphinxsearch</define-tag>
<define-tag isvulnerable>yes</define-tag>
<define-tag fixed>yes</define-tag>
<define-tag fixed-section>no</define-tag>

#use wml::debian::security



</dl>
