<define-tag pagetitle>DLA-334-2 libxml2</define-tag>
<define-tag report_date>2015-10-26</define-tag>
<define-tag packages>libxml2</define-tag>
<define-tag isvulnerable>yes</define-tag>
<define-tag fixed>yes</define-tag>
<define-tag fixed-section>no</define-tag>

#use wml::debian::security

