<define-tag pagetitle>DLA-1792-2 cups-filters</define-tag>
<define-tag report_date>2019-05-19</define-tag>
<define-tag secrefs>Bug#926576 Bug#928936 Bug#928952</define-tag>
<define-tag packages>cups-filters</define-tag>
<define-tag isvulnerable>yes</define-tag>
<define-tag fixed>yes</define-tag>
<define-tag fixed-section>no</define-tag>

#use wml::debian::security

