<define-tag pagetitle>DLA-1831-1 jackson-databind</define-tag>
<define-tag report_date>2019-6-21</define-tag>
<define-tag secrefs>CVE-2019-12384 CVE-2019-12814 Bug#930750</define-tag>
<define-tag packages>jackson-databind</define-tag>
<define-tag isvulnerable>yes</define-tag>
<define-tag fixed>yes</define-tag>
<define-tag fixed-section>no</define-tag>

#use wml::debian::security

