<define-tag pagetitle>DLA-1834-1 python2.7</define-tag>
<define-tag report_date>2019-06-24</define-tag>
<define-tag secrefs>CVE-2018-14647 CVE-2019-5010 CVE-2019-9636 CVE-2019-9740 CVE-2019-9947 CVE-2019-9948 CVE-2019-10160 Bug#921039 Bug#921040 Bug#924073</define-tag>
<define-tag packages>python2.7</define-tag>
<define-tag isvulnerable>yes</define-tag>
<define-tag fixed>yes</define-tag>
<define-tag fixed-section>no</define-tag>

#use wml::debian::security

