<define-tag pagetitle>DLA-1686-1 freedink-dfarc</define-tag>
<define-tag report_date>2019-02-24</define-tag>
<define-tag secrefs>CVE-2018-0496</define-tag>
<define-tag packages>freedink-dfarc</define-tag>
<define-tag isvulnerable>yes</define-tag>
<define-tag fixed>yes</define-tag>
<define-tag fixed-section>no</define-tag>

#use wml::debian::security

