<define-tag pagetitle>DLA-1952-1 rsyslog</define-tag>
<define-tag report_date>2019-10-09</define-tag>
<define-tag secrefs>CVE-2019-17041 CVE-2019-17042</define-tag>
<define-tag packages>rsyslog</define-tag>
<define-tag isvulnerable>yes</define-tag>
<define-tag fixed>yes</define-tag>
<define-tag fixed-section>no</define-tag>

#use wml::debian::security
