<define-tag pagetitle>DLA-1730-1 libssh2</define-tag>
<define-tag report_date>2019-3-26</define-tag>
<define-tag secrefs>CVE-2019-3855 CVE-2019-3856 CVE-2019-3857 CVE-2019-3858 CVE-2019-3859 CVE-2019-3860 CVE-2019-3861 CVE-2019-3862 CVE-2019-3863 Bug#924965</define-tag>
<define-tag packages>libssh2</define-tag>
<define-tag isvulnerable>yes</define-tag>
<define-tag fixed>yes</define-tag>
<define-tag fixed-section>no</define-tag>

#use wml::debian::security

