<define-tag pagetitle>DLA-1961-1 milkytracker</define-tag>
<define-tag report_date>2019-10-21</define-tag>
<define-tag secrefs>CVE-2019-14464 CVE-2019-14496 CVE-2019-14497 Bug#933964</define-tag>
<define-tag packages>milkytracker</define-tag>
<define-tag isvulnerable>yes</define-tag>
<define-tag fixed>yes</define-tag>
<define-tag fixed-section>no</define-tag>

#use wml::debian::security

