<define-tag pagetitle>DLA-1982-1 openafs</define-tag>
<define-tag report_date>2019-11-6</define-tag>
<define-tag secrefs>CVE-2019-18601 CVE-2019-18602 CVE-2019-18603 Bug#943587</define-tag>
<define-tag packages>openafs</define-tag>
<define-tag isvulnerable>yes</define-tag>
<define-tag fixed>yes</define-tag>
<define-tag fixed-section>no</define-tag>

#use wml::debian::security

