<define-tag pagetitle>DLA-1883-1 tomcat8</define-tag>
<define-tag report_date>2019-08-13</define-tag>
<define-tag secrefs>CVE-2016-5388 CVE-2018-8014 CVE-2019-0221 Bug#929895 Bug#898935</define-tag>
<define-tag packages>tomcat8</define-tag>
<define-tag isvulnerable>yes</define-tag>
<define-tag fixed>yes</define-tag>
<define-tag fixed-section>no</define-tag>

#use wml::debian::security

