<define-tag pagetitle>DLA-626-1 phpmyadmin</define-tag>
<define-tag report_date>2016-9-17</define-tag>
<define-tag secrefs>CVE-2016-6606 CVE-2016-6607 CVE-2016-6609 CVE-2016-6611 CVE-2016-6612 CVE-2016-6613 CVE-2016-6614 CVE-2016-6620 CVE-2016-6622 CVE-2016-6623 CVE-2016-6624 CVE-2016-6630 CVE-2016-6631</define-tag>
<define-tag packages>phpmyadmin</define-tag>
<define-tag isvulnerable>yes</define-tag>
<define-tag fixed>yes</define-tag>
<define-tag fixed-section>no</define-tag>

#use wml::debian::security

