<define-tag pagetitle>DLA-513-1 nspr</define-tag>
<define-tag report_date>2016-6-12</define-tag>
<define-tag secrefs>CVE-2016-1951</define-tag>
<define-tag packages>nspr</define-tag>
<define-tag isvulnerable>yes</define-tag>
<define-tag fixed>yes</define-tag>
<define-tag fixed-section>no</define-tag>

#use wml::debian::security

