<define-tag pagetitle>DLA-532-1 movabletype-opensource</define-tag>
<define-tag report_date>2016-6-27</define-tag>
<define-tag secrefs>CVE-2016-5742</define-tag>
<define-tag packages>movabletype-opensource</define-tag>
<define-tag isvulnerable>yes</define-tag>
<define-tag fixed>yes</define-tag>
<define-tag fixed-section>no</define-tag>

#use wml::debian::security

